List contains 1256 TLEs
Tracker active
Next pass of ISS (ZARYA) from Sun Jan  6 06:43:39 2013 to Sun Jan  6 06:49:56 2013
Rotator::pointTo(2.89096, 5.56161e-05) ---> "A165.6E0.0'" - not connected
problem getting lastposition : Stream inactive [*]
LAST POSITION = "ERROR
connected to rotator at 158.193.216.78:11111
rotator mode set OK
LAST POSITION = "ROTATOR_MODE_SELECTED
LAST POSITION = "POSMEM_A355.9E11.9 
LAST POSITION = "POSMEM_A355.9E11.9 
LAST POSITION = "POSMEM_A355.9E11.9 
LAST POSITION = "POSMEM_A355.9E11.9 
LAST POSITION = "POSMEM_A355.9E11.9 
LAST POSITION = "POSMEM_A355.9E11.9 
LAST POSITION = "POSMEM_A355.9E11.9 
Tracked satellite changed
Satellite is now visible
Rotator::pointTo(4.14794, 0.101645) ---> "A237.7E5.8'"
LAST POSITION = "POSMEM_A355.9E11.9 
LAST POSITION = "GO_TO_A237.7_E5.8
LAST POSITION = "A_MOTOR: E0316EDEAA;
LAST POSITION = "POSMEM?
LAST POSITION = "B_MOTOR: E0316EE273;
Rotator::pointTo(4.15942, 0.105278) ---> "A238.3E6.0'"
LAST POSITION = "POSMEM_A237.7E5.8 
LAST POSITION = "POSMEM_A237.7E5.8 
LAST POSITION = "POSMEM_A237.7E5.8 
LAST POSITION = "POSMEM_A237.7E5.8 
LAST POSITION = "GO_TO_A238.3_E6.0
Rotator::pointTo(4.17107, 0.108883) ---> "A239.0E6.2'"
LAST POSITION = "A_MOTOR: E0316EDEB5;
LAST POSITION = "POSMEM?
LAST POSITION = "B_MOTOR: E0316EE270;
LAST POSITION = "POSMEM_A238.3E6.0 
LAST POSITION = "POSMEM_A238.3E6.0 
Rotator::pointTo(4.18288, 0.11246) ---> "A239.7E6.4'"
LAST POSITION = "POSMEM_A238.3E6.0 
LAST POSITION = "POSMEM_A238.3E6.0 
LAST POSITION = "GO_TO_A239.0_E6.2
LAST POSITION = "A_MOTOR: E0316EDEC0;
LAST POSITION = "POSMEM?
Rotator::pointTo(4.19485, 0.116005) ---> "A240.3E6.6'"
LAST POSITION = "B_MOTOR: E0316EE26B;
LAST POSITION = "POSMEM_A239.0E6.2 
LAST POSITION = "POSMEM_A239.0E6.2 
LAST POSITION = "POSMEM_A239.0E6.2 
LAST POSITION = "POSMEM_A239.0E6.2 
Rotator::pointTo(4.20698, 0.119517) ---> "A241.0E6.8'"
LAST POSITION = "GO_TO_A239.7_E6.4
LAST POSITION = "A_MOTOR: E0316EDECA;
LAST POSITION = "POSMEM?
LAST POSITION = "B_MOTOR: E0316EE268;
LAST POSITION = "POSMEM_A239.7E6.4 
Rotator::pointTo(4.21928, 0.122993) ---> "A241.7E7.0'"
LAST POSITION = "POSMEM_A239.7E6.4 
LAST POSITION = "POSMEM_A239.7E6.4 
LAST POSITION = "POSMEM_A239.7E6.4 
LAST POSITION = "GO_TO_A240.3_E6.6
LAST POSITION = "A_MOTOR: E0316EDED5;
Rotator::pointTo(4.23174, 0.126431) ---> "A242.5E7.2'"
LAST POSITION = "POSMEM?
LAST POSITION = "B_MOTOR: E0316EE266;
LAST POSITION = "POSMEM_A240.3E6.6 
LAST POSITION = "POSMEM_A240.3E6.6 
LAST POSITION = "POSMEM_A240.3E6.6 
Rotator::pointTo(4.24437, 0.129828) ---> "A243.2E7.4'"
LAST POSITION = "POSMEM_A240.3E6.6 
LAST POSITION = "GO_TO_A241.0_E6.8
LAST POSITION = "A_MOTOR: E0316EDEE0;
LAST POSITION = "POSMEM?
LAST POSITION = "B_MOTOR: E0316EE263;
Rotator::pointTo(4.25715, 0.133183) ---> "A243.9E7.6'"
LAST POSITION = "POSMEM_A241.0E6.8 
LAST POSITION = "POSMEM_A241.0E6.8 
LAST POSITION = "POSMEM_A241.0E6.8 
LAST POSITION = "POSMEM_A241.0E6.8 
LAST POSITION = "GO_TO_A241.7_E7.0
Rotator::pointTo(4.27011, 0.136491) ---> "A244.7E7.8'"
LAST POSITION = "A_MOTOR: E0316EDEEA;
LAST POSITION = "POSMEM?
LAST POSITION = "B_MOTOR: E0316EE260;
LAST POSITION = "POSMEM_A241.7E7.0 
LAST POSITION = "POSMEM_A241.7E7.0 
Rotator::pointTo(4.28322, 0.139752) ---> "A245.4E8.0'"
LAST POSITION = "POSMEM_A241.7E7.0 
LAST POSITION = "POSMEM_A241.7E7.0 
LAST POSITION = "GO_TO_A242.5_E7.2
LAST POSITION = "A_MOTOR: E0316EDEF8;
LAST POSITION = "POSMEM?
Rotator::pointTo(4.2965, 0.142961) ---> "A246.2E8.2'"
LAST POSITION = "B_MOTOR: E0316EE25B;
LAST POSITION = "POSMEM_A242.5E7.2 
LAST POSITION = "POSMEM_A242.5E7.2 
LAST POSITION = "POSMEM_A242.5E7.2 
LAST POSITION = "POSMEM_A242.5E7.2 
Rotator::pointTo(4.30994, 0.146117) ---> "A246.9E8.4'"
LAST POSITION = "GO_TO_A243.2_E7.4
LAST POSITION = "A_MOTOR: E0316EDF02;
LAST POSITION = "POSMEM?
LAST POSITION = "B_MOTOR: E0316EE258;
LAST POSITION = "POSMEM_A243.2E7.4 
Rotator::pointTo(4.32355, 0.149216) ---> "A247.7E8.5'"
LAST POSITION = "POSMEM_A243.2E7.4 
LAST POSITION = "POSMEM_A243.2E7.4 
LAST POSITION = "POSMEM_A243.2E7.4 
LAST POSITION = "GO_TO_A243.9_E7.6
LAST POSITION = "A_MOTOR: E0316EDF0E;
Rotator::pointTo(4.33731, 0.152256) ---> "A248.5E8.7'"
LAST POSITION = "POSMEM?
LAST POSITION = "B_MOTOR: E0316EE256;
LAST POSITION = "POSMEM_A243.9E7.6 
LAST POSITION = "POSMEM_A243.9E7.6 
LAST POSITION = "POSMEM_A243.9E7.6 
Rotator::pointTo(4.35123, 0.155233) ---> "A249.3E8.9'"
LAST POSITION = "POSMEM_A243.9E7.6 
LAST POSITION = "GO_TO_A244.7_E7.8
LAST POSITION = "A_MOTOR: E0316EDF1A;
LAST POSITION = "POSMEM?
LAST POSITION = "B_MOTOR: E0316EE253;
Rotator::pointTo(4.36531, 0.158146) ---> "A250.1E9.1'"
LAST POSITION = "POSMEM_A244.7E7.8 
LAST POSITION = "POSMEM_A244.7E7.8 
LAST POSITION = "POSMEM_A244.7E7.8 
LAST POSITION = "POSMEM_A244.7E7.8 
LAST POSITION = "GO_TO_A245.4_E8.0
Rotator::pointTo(4.37955, 0.16099) ---> "A250.9E9.2'"
LAST POSITION = "A_MOTOR: E0316EDF26;
LAST POSITION = "POSMEM?
LAST POSITION = "B_MOTOR: E0316EE250;
LAST POSITION = "POSMEM_A245.4E8.0 
LAST POSITION = "POSMEM_A245.4E8.0 
LAST POSITION = "POSMEM_A245.4E8.0 
Rotator::pointTo(4.39394, 0.163763) ---> "A251.8E9.4'"
LAST POSITION = "POSMEM_A245.4E8.0 
LAST POSITION = "GO_TO_A246.2_E8.2
LAST POSITION = "A_MOTOR: E0316EDF32;
LAST POSITION = "POSMEM?
Rotator::pointTo(4.40848, 0.166463) ---> "A252.6E9.5'"
LAST POSITION = "B_MOTOR: E0316EE24B;
LAST POSITION = "POSMEM_A246.2E8.2 
LAST POSITION = "POSMEM_A246.2E8.2 
LAST POSITION = "POSMEM_A246.2E8.2 
LAST POSITION = "POSMEM_A246.2E8.2 
Rotator::pointTo(4.42316, 0.169085) ---> "A253.4E9.7'"
LAST POSITION = "GO_TO_A246.9_E8.4
LAST POSITION = "A_MOTOR: E0316EDF3E;
LAST POSITION = "POSMEM?
LAST POSITION = "B_MOTOR: E0316EE248;
LAST POSITION = "POSMEM_A246.9E8.4 
Rotator::pointTo(4.438, 0.171627) ---> "A254.3E9.8'"
LAST POSITION = "POSMEM_A246.9E8.4 
LAST POSITION = "POSMEM_A246.9E8.4 
LAST POSITION = "POSMEM_A246.9E8.4 
LAST POSITION = "GO_TO_A247.7_E8.5
LAST POSITION = "A_MOTOR: E0316EDF4A;
LAST POSITION = "POSMEM?
Rotator::pointTo(4.45297, 0.174086) ---> "A255.1E10.0'"
LAST POSITION = "B_MOTOR: E0316EE248;
LAST POSITION = "POSMEM_A247.7E8.5 
LAST POSITION = "POSMEM_A247.7E8.5 
LAST POSITION = "POSMEM_A247.7E8.5 
Rotator::pointTo(4.46808, 0.176459) ---> "A256.0E10.1'"
LAST POSITION = "POSMEM_A247.7E8.5 
LAST POSITION = "GO_TO_A248.5_E8.7
LAST POSITION = "A_MOTOR: E0316EDF58;
LAST POSITION = "POSMEM?
LAST POSITION = "B_MOTOR: E0316EE243;
LAST POSITION = "POSMEM_A248.5E8.7 
Rotator::pointTo(4.48333, 0.178744) ---> "A256.9E10.2'"
LAST POSITION = "POSMEM_A248.5E8.7 
LAST POSITION = "POSMEM_A248.5E8.7 
LAST POSITION = "POSMEM_A248.5E8.7 
LAST POSITION = "GO_TO_A249.3_E8.9
LAST POSITION = "A_MOTOR: E0316EDF65;
Rotator::pointTo(4.4987, 0.180936) ---> "A257.8E10.4'"
LAST POSITION = "POSMEM?
LAST POSITION = "B_MOTOR: E0316EE240;
LAST POSITION = "POSMEM_A249.3E8.9 
LAST POSITION = "POSMEM_A249.3E8.9 
LAST POSITION = "POSMEM_A249.3E8.9 
Rotator::pointTo(4.5142, 0.183034) ---> "A258.6E10.5'"
LAST POSITION = "POSMEM_A249.3E8.9 
LAST POSITION = "GO_TO_A250.1_E9.1
LAST POSITION = "A_MOTOR: E0316EDF72;
LAST POSITION = "POSMEM?
Rotator::pointTo(4.52983, 0.185034) ---> "A259.5E10.6'"
LAST POSITION = "B_MOTOR: E0316EE23E;
LAST POSITION = "POSMEM_A250.1E9.1 
LAST POSITION = "POSMEM_A250.1E9.1 
LAST POSITION = "POSMEM_A250.1E9.1 
LAST POSITION = "POSMEM_A250.1E9.1 
LAST POSITION = "GO_TO_A250.9_E9.2
Rotator::pointTo(4.54556, 0.186935) ---> "A260.4E10.7'"
LAST POSITION = "A_MOTOR: E0316EDF7E;
LAST POSITION = "POSMEM?
LAST POSITION = "B_MOTOR: E0316EE23B;
LAST POSITION = "POSMEM_A250.9E9.2 
Rotator::pointTo(4.56141, 0.188732) ---> "A261.3E10.8'"
LAST POSITION = "POSMEM_A250.9E9.2 
LAST POSITION = "POSMEM_A250.9E9.2 
LAST POSITION = "POSMEM_A250.9E9.2 
LAST POSITION = "POSMEM_A250.9E9.2 
LAST POSITION = "GO_TO_A251.8_E9.4
LAST POSITION = "A_MOTOR: E0316EDF8D;
Rotator::pointTo(4.57736, 0.190425) ---> "A262.3E10.9'"
LAST POSITION = "B_MOTOR: E0316EE238;
LAST POSITION = "POSMEM_A251.8E9.4 
LAST POSITION = "POSMEM_A251.8E9.4 
LAST POSITION = "POSMEM_A251.8E9.4 
Rotator::pointTo(4.59341, 0.192009) ---> "A263.2E11.0'"
LAST POSITION = "POSMEM_A251.8E9.4 
LAST POSITION = "GO_TO_A252.6_E9.5
LAST POSITION = "A_MOTOR: E0316EDF9A;
LAST POSITION = "POSMEM?
LAST POSITION = "B_MOTOR: E0316EE238;
LAST POSITION = "POSMEM_A252.6E9.5 
Rotator::pointTo(4.60956, 0.193484) ---> "A264.1E11.1'"
LAST POSITION = "POSMEM_A252.6E9.5 
LAST POSITION = "POSMEM_A252.6E9.5 
LAST POSITION = "POSMEM_A252.6E9.5 
LAST POSITION = "GO_TO_A253.4_E9.7
Rotator::pointTo(4.62578, 0.194847) ---> "A265.0E11.2'"
LAST POSITION = "A_MOTOR: E0316EDFA6;
LAST POSITION = "POSMEM?
LAST POSITION = "B_MOTOR: E0316EE233;
LAST POSITION = "POSMEM_A253.4E9.7 
LAST POSITION = "POSMEM_A253.4E9.7 
LAST POSITION = "POSMEM_A253.4E9.7 
Rotator::pointTo(4.64209, 0.196096) ---> "A266.0E11.2'"
LAST POSITION = "POSMEM_A253.4E9.7 
LAST POSITION = "GO_TO_A254.3_E9.8
LAST POSITION = "A_MOTOR: E0316EDFB5;
LAST POSITION = "POSMEM?
Rotator::pointTo(4.65847, 0.197229) ---> "A266.9E11.3'"
LAST POSITION = "B_MOTOR: E0316EE233;
LAST POSITION = "POSMEM_A254.3E9.8 
LAST POSITION = "POSMEM_A254.3E9.8 
LAST POSITION = "POSMEM_A254.3E9.8 
LAST POSITION = "POSMEM_A254.3E9.8 
LAST POSITION = "POSMEM_A254.3E9.8 
Rotator::pointTo(4.67492, 0.198244) ---> "A267.9E11.4'"
LAST POSITION = "GO_TO_A255.1_E10.0
LAST POSITION = "A_MOTOR: E0316EDFC2;
LAST POSITION = "B_MOTOR: E0316EE230;
LAST POSITION = "POSMEM_A255.1E10.0 
Rotator::pointTo(4.69142, 0.19914) ---> "A268.8E11.4'"
LAST POSITION = "POSMEM_A255.1E10.0 
LAST POSITION = "POSMEM_A255.1E10.0 
LAST POSITION = "POSMEM_A255.1E10.0 
LAST POSITION = "GO_TO_A256.0_E10.1
LAST POSITION = "A_MOTOR: E0316EDFD0;
LAST POSITION = "B_MOTOR: E0316EE22E;
Rotator::pointTo(4.70798, 0.199915) ---> "A269.7E11.5'"
LAST POSITION = "POSMEM_A256.0E10.1 
LAST POSITION = "POSMEM_A256.0E10.1 
LAST POSITION = "POSMEM_A256.0E10.1 
LAST POSITION = "POSMEM_A256.0E10.1 
Rotator::pointTo(4.72458, 0.200569) ---> "A270.7E11.5'"
LAST POSITION = "POSMEM_A256.0E10.1 
LAST POSITION = "GO_TO_A256.9_E10.2
LAST POSITION = "A_MOTOR: E0316EDFDD;
LAST POSITION = "B_MOTOR: E0316EE22B;
LAST POSITION = "POSMEM_A256.9E10.2 
LAST POSITION = "POSMEM_A256.9E10.2 
Rotator::pointTo(4.74121, 0.2011) ---> "A271.7E11.5'"
LAST POSITION = "POSMEM_A256.9E10.2 
LAST POSITION = "POSMEM_A256.9E10.2 
LAST POSITION = "POSMEM_A256.9E10.2 
LAST POSITION = "GO_TO_A257.8_E10.4
Rotator::pointTo(4.75787, 0.201507) ---> "A272.6E11.5'"
LAST POSITION = "A_MOTOR: E0316EDFED;
LAST POSITION = "B_MOTOR: E0316EE228;
LAST POSITION = "POSMEM_A257.8E10.4 
LAST POSITION = "POSMEM_A257.8E10.4 
LAST POSITION = "POSMEM_A257.8E10.4 
LAST POSITION = "POSMEM_A257.8E10.4 
Rotator::pointTo(4.77455, 0.20179) ---> "A273.6E11.6'"
LAST POSITION = "POSMEM_A257.8E10.4 
LAST POSITION = "GO_TO_A258.6_E10.5
LAST POSITION = "A_MOTOR: E0316EDFFA;
LAST POSITION = "B_MOTOR: E0316EE228;
LAST POSITION = "POSMEM_A258.6E10.5 
Rotator::pointTo(4.79124, 0.201949) ---> "A274.5E11.6'"
LAST POSITION = "POSMEM_A258.6E10.5 
LAST POSITION = "POSMEM_A258.6E10.5 
LAST POSITION = "POSMEM_A258.6E10.5 
LAST POSITION = "GO_TO_A259.5_E10.6
LAST POSITION = "A_MOTOR: E0316E1008;
Rotator::pointTo(4.80794, 0.201983) ---> "A275.5E11.6'"
LAST POSITION = "B_MOTOR: E0316EE226;
LAST POSITION = "POSMEM_A259.5E10.6 
LAST POSITION = "POSMEM_A259.5E10.6 
LAST POSITION = "POSMEM_A259.5E10.6 
Rotator::pointTo(4.82463, 0.201892) ---> "A276.4E11.6'"
LAST POSITION = "POSMEM_A259.5E10.6 
LAST POSITION = "POSMEM_A259.5E10.6 
LAST POSITION = "GO_TO_A260.4_E10.7
LAST POSITION = "A_MOTOR: E0316E1015;
LAST POSITION = "B_MOTOR: E0316EE223;
LAST POSITION = "POSMEM_A260.4E10.7 
Rotator::pointTo(4.84131, 0.201676) ---> "A277.4E11.6'"
LAST POSITION = "POSMEM_A260.4E10.7 
LAST POSITION = "POSMEM_A260.4E10.7 
LAST POSITION = "POSMEM_A260.4E10.7 
LAST POSITION = "GO_TO_A261.3_E10.8
Rotator::pointTo(4.85797, 0.201337) ---> "A278.3E11.5'"
LAST POSITION = "A_MOTOR: E0316E1025;
LAST POSITION = "B_MOTOR: E0316EE223;
LAST POSITION = "POSMEM_A261.3E10.8 
LAST POSITION = "POSMEM_A261.3E10.8 
LAST POSITION = "POSMEM_A261.3E10.8 
LAST POSITION = "POSMEM_A261.3E10.8 
Rotator::pointTo(4.87461, 0.200874) ---> "A279.3E11.5'"
LAST POSITION = "POSMEM_A261.3E10.8 
LAST POSITION = "GO_TO_A262.3_E10.9
LAST POSITION = "A_MOTOR: E0316E1035;
LAST POSITION = "B_MOTOR: E0316EE220;
Rotator::pointTo(4.8912, 0.200288) ---> "A280.2E11.5'"
LAST POSITION = "POSMEM_A262.3E10.9 
LAST POSITION = "POSMEM_A262.3E10.9 
LAST POSITION = "POSMEM_A262.3E10.9 
LAST POSITION = "POSMEM_A262.3E10.9 
LAST POSITION = "GO_TO_A263.2_E11.0
LAST POSITION = "A_MOTOR: E0316E1043;
Rotator::pointTo(4.90776, 0.199581) ---> "A281.2E11.4'"
LAST POSITION = "B_MOTOR: E0316EE220;
LAST POSITION = "POSMEM_A263.2E11.0 
LAST POSITION = "POSMEM_A263.2E11.0 
LAST POSITION = "POSMEM_A263.2E11.0 
Rotator::pointTo(4.92426, 0.198752) ---> "A282.1E11.4'"
LAST POSITION = "POSMEM_A263.2E11.0 
LAST POSITION = "POSMEM_A263.2E11.0 
LAST POSITION = "GO_TO_A264.1_E11.1
LAST POSITION = "A_MOTOR: E0316E1052;
LAST POSITION = "B_MOTOR: E0316EE21E;
LAST POSITION = "POSMEM_A264.1E11.1 
Rotator::pointTo(4.9407, 0.197805) ---> "A283.1E11.3'"
LAST POSITION = "POSMEM_A264.1E11.1 
LAST POSITION = "POSMEM_A264.1E11.1 
LAST POSITION = "POSMEM_A264.1E11.1 
LAST POSITION = "GO_TO_A265.0_E11.2
Rotator::pointTo(4.95708, 0.196741) ---> "A284.0E11.3'"
LAST POSITION = "A_MOTOR: E0316E1060;
LAST POSITION = "B_MOTOR: E0316EE21B;
LAST POSITION = "POSMEM_A265.0E11.2 
LAST POSITION = "POSMEM_A265.0E11.2 
LAST POSITION = "POSMEM_A265.0E11.2 
LAST POSITION = "POSMEM_A265.0E11.2 
Rotator::pointTo(4.97339, 0.19556) ---> "A285.0E11.2'"
LAST POSITION = "POSMEM_A265.0E11.2 
LAST POSITION = "GO_TO_A266.0_E11.2
LAST POSITION = "A_MOTOR: E0316E1070;
LAST POSITION = "B_MOTOR: E0316EE21B;
Rotator::pointTo(4.98962, 0.194265) ---> "A285.9E11.1'"
LAST POSITION = "POSMEM_A266.0E11.2 
LAST POSITION = "POSMEM_A266.0E11.2 
LAST POSITION = "POSMEM_A266.0E11.2 
LAST POSITION = "POSMEM_A266.0E11.2 
LAST POSITION = "GO_TO_A266.9_E11.3
LAST POSITION = "A_MOTOR: E0316E107D;
Rotator::pointTo(5.00576, 0.192859) ---> "A286.8E11.0'"
LAST POSITION = "B_MOTOR: E0316EE21B;
LAST POSITION = "POSMEM_A266.9E11.3 
LAST POSITION = "POSMEM_A266.9E11.3 
LAST POSITION = "POSMEM_A266.9E11.3 
Rotator::pointTo(5.02181, 0.191342) ---> "A287.7E11.0'"
LAST POSITION = "POSMEM_A266.9E11.3 
LAST POSITION = "POSMEM_A266.9E11.3 
LAST POSITION = "GO_TO_A267.9_E11.4
LAST POSITION = "A_MOTOR: E0316E108D;
LAST POSITION = "B_MOTOR: E0316EE218;
LAST POSITION = "POSMEM_A267.9E11.4 
Rotator::pointTo(5.03776, 0.189718) ---> "A288.6E10.9'"
LAST POSITION = "POSMEM_A267.9E11.4 
LAST POSITION = "POSMEM_A267.9E11.4 
LAST POSITION = "POSMEM_A267.9E11.4 
LAST POSITION = "GO_TO_A268.8_E11.4
Rotator::pointTo(5.0536, 0.187989) ---> "A289.6E10.8'"
LAST POSITION = "A_MOTOR: E0316E109D;
LAST POSITION = "B_MOTOR: E0316EE218;
LAST POSITION = "POSMEM_A268.8E11.4 
LAST POSITION = "POSMEM_A268.8E11.4 
LAST POSITION = "POSMEM_A268.8E11.4 
LAST POSITION = "POSMEM_A268.8E11.4 
Rotator::pointTo(5.06934, 0.186158) ---> "A290.5E10.7'"
LAST POSITION = "POSMEM_A268.8E11.4 
LAST POSITION = "GO_TO_A269.7_E11.5
LAST POSITION = "A_MOTOR: E0316E10AB;
LAST POSITION = "B_MOTOR: E0316EE218;
Rotator::pointTo(5.08496, 0.184226) ---> "A291.3E10.6'"
LAST POSITION = "POSMEM_A269.7E11.5 
LAST POSITION = "POSMEM_A269.7E11.5 
LAST POSITION = "POSMEM_A269.7E11.5 
LAST POSITION = "POSMEM_A269.7E11.5 
LAST POSITION = "GO_TO_A270.7_E11.5
LAST POSITION = "A_MOTOR: E0316E10BB;
Rotator::pointTo(5.10047, 0.182197) ---> "A292.2E10.4'"
LAST POSITION = "B_MOTOR: E0316EE218;
LAST POSITION = "POSMEM_A270.7E11.5 
LAST POSITION = "POSMEM_A270.7E11.5 
LAST POSITION = "POSMEM_A270.7E11.5 
LAST POSITION = "POSMEM_A270.7E11.5 
Rotator::pointTo(5.11584, 0.180073) ---> "A293.1E10.3'"
LAST POSITION = "POSMEM_A270.7E11.5 
LAST POSITION = "GO_TO_A271.7_E11.5
LAST POSITION = "A_MOTOR: E0316E10CB;
LAST POSITION = "B_MOTOR: E0316EE218;
LAST POSITION = "POSMEM_A271.7E11.5 
Rotator::pointTo(5.13109, 0.177858) ---> "A294.0E10.2'"
LAST POSITION = "POSMEM_A271.7E11.5 
LAST POSITION = "POSMEM_A271.7E11.5 
LAST POSITION = "POSMEM_A271.7E11.5 
LAST POSITION = "GO_TO_A272.6_E11.5
LAST POSITION = "A_MOTOR: E0316E10DA;
Rotator::pointTo(5.1462, 0.175553) ---> "A294.9E10.1'"
LAST POSITION = "B_MOTOR: E0316EE218;
LAST POSITION = "POSMEM_A272.6E11.5 
LAST POSITION = "POSMEM_A272.6E11.5 
LAST POSITION = "POSMEM_A272.6E11.5 
LAST POSITION = "POSMEM_A272.6E11.5 
Rotator::pointTo(5.16118, 0.173163) ---> "A295.7E9.9'"
LAST POSITION = "POSMEM_A272.6E11.5 
LAST POSITION = "GO_TO_A273.6_E11.6
LAST POSITION = "A_MOTOR: E0316E10EA;
LAST POSITION = "B_MOTOR: E0316EE216;
LAST POSITION = "POSMEM_A273.6E11.6 
Rotator::pointTo(5.17602, 0.17069) ---> "A296.6E9.8'"
LAST POSITION = "POSMEM_A273.6E11.6 
LAST POSITION = "POSMEM_A273.6E11.6 
LAST POSITION = "POSMEM_A273.6E11.6 
LAST POSITION = "POSMEM_A273.6E11.6 
LAST POSITION = "GO_TO_A274.5_E11.6
Rotator::pointTo(5.19071, 0.168137) ---> "A297.4E9.6'"
LAST POSITION = "A_MOTOR: E0316E10F8;
LAST POSITION = "B_MOTOR: E0316EE216;
LAST POSITION = "POSMEM_A274.5E11.6 
LAST POSITION = "POSMEM_A274.5E11.6 
Rotator::pointTo(5.20526, 0.165506) ---> "A298.2E9.5'"
LAST POSITION = "POSMEM_A274.5E11.6 
LAST POSITION = "POSMEM_A274.5E11.6 
LAST POSITION = "POSMEM_A274.5E11.6 
LAST POSITION = "GO_TO_A275.5_E11.6
LAST POSITION = "A_MOTOR: E0316E1108;
LAST POSITION = "B_MOTOR: E0316EE216;
Rotator::pointTo(5.21965, 0.162802) ---> "A299.1E9.3'"
LAST POSITION = "POSMEM_A275.5E11.6 
LAST POSITION = "POSMEM_A275.5E11.6 
LAST POSITION = "POSMEM_A275.5E11.6 
LAST POSITION = "POSMEM_A275.5E11.6 
LAST POSITION = "GO_TO_A276.4_E11.6
Rotator::pointTo(5.2339, 0.160026) ---> "A299.9E9.2'"
LAST POSITION = "A_MOTOR: E0316E1115;
LAST POSITION = "B_MOTOR: E0316EE216;
LAST POSITION = "POSMEM_A276.4E11.6 
LAST POSITION = "POSMEM_A276.4E11.6 
LAST POSITION = "POSMEM_A276.4E11.6 
Rotator::pointTo(5.24799, 0.157183) ---> "A300.7E9.0'"
LAST POSITION = "POSMEM_A276.4E11.6 
LAST POSITION = "POSMEM_A276.4E11.6 
LAST POSITION = "GO_TO_A277.4_E11.6
LAST POSITION = "A_MOTOR: E0316E1125;
LAST POSITION = "B_MOTOR: E0316EE216;
Rotator::pointTo(5.26192, 0.154274) ---> "A301.5E8.8'"
LAST POSITION = "POSMEM_A277.4E11.6 
LAST POSITION = "POSMEM_A277.4E11.6 
LAST POSITION = "POSMEM_A277.4E11.6 
LAST POSITION = "POSMEM_A277.4E11.6 
LAST POSITION = "GO_TO_A278.3_E11.5
Rotator::pointTo(5.2757, 0.151303) ---> "A302.3E8.7'"
LAST POSITION = "A_MOTOR: E0316E1135;
LAST POSITION = "B_MOTOR: E0316EE218;
LAST POSITION = "POSMEM_A278.3E11.5 
LAST POSITION = "POSMEM_A278.3E11.5 
LAST POSITION = "POSMEM_A278.3E11.5 
Rotator::pointTo(5.28931, 0.148272) ---> "A303.1E8.5'"
LAST POSITION = "POSMEM_A278.3E11.5 
LAST POSITION = "POSMEM_A278.3E11.5 
LAST POSITION = "GO_TO_A279.3_E11.5
LAST POSITION = "A_MOTOR: E0316E1145;
LAST POSITION = "B_MOTOR: E0316EE218;
Rotator::pointTo(5.30277, 0.145185) ---> "A303.8E8.3'"
LAST POSITION = "POSMEM_A279.3E11.5 
LAST POSITION = "POSMEM_A279.3E11.5 
LAST POSITION = "POSMEM_A279.3E11.5 
LAST POSITION = "POSMEM_A279.3E11.5 
LAST POSITION = "GO_TO_A280.2_E11.5
Rotator::pointTo(5.31606, 0.142044) ---> "A304.6E8.1'"
LAST POSITION = "A_MOTOR: E0316E1153;
LAST POSITION = "B_MOTOR: E0316EE218;
LAST POSITION = "POSMEM_A280.2E11.5 
LAST POSITION = "POSMEM_A280.2E11.5 
LAST POSITION = "POSMEM_A280.2E11.5 
Rotator::pointTo(5.3292, 0.138852) ---> "A305.3E8.0'"
LAST POSITION = "POSMEM_A280.2E11.5 
LAST POSITION = "POSMEM_A280.2E11.5 
LAST POSITION = "GO_TO_A281.2_E11.4
LAST POSITION = "A_MOTOR: E0316E1163;
LAST POSITION = "B_MOTOR: E0316EE218;
Rotator::pointTo(5.34217, 0.135612) ---> "A306.1E7.8'"
LAST POSITION = "POSMEM_A281.2E11.4 
LAST POSITION = "POSMEM_A281.2E11.4 
LAST POSITION = "POSMEM_A281.2E11.4 
LAST POSITION = "POSMEM_A281.2E11.4 
LAST POSITION = "GO_TO_A282.1_E11.4
Rotator::pointTo(5.35498, 0.132326) ---> "A306.8E7.6'"
LAST POSITION = "A_MOTOR: E0316E1172;
LAST POSITION = "B_MOTOR: E0316EE218;
LAST POSITION = "POSMEM_A282.1E11.4 
LAST POSITION = "POSMEM_A282.1E11.4 
LAST POSITION = "POSMEM_A282.1E11.4 
Rotator::pointTo(5.36763, 0.128996) ---> "A307.5E7.4'"
LAST POSITION = "POSMEM_A282.1E11.4 
LAST POSITION = "POSMEM_A282.1E11.4 
LAST POSITION = "GO_TO_A283.1_E11.3
LAST POSITION = "A_MOTOR: E0316E1182;
LAST POSITION = "B_MOTOR: E0316EE21B;
Rotator::pointTo(5.38011, 0.125626) ---> "A308.3E7.2'"
LAST POSITION = "POSMEM_A283.1E11.3 
LAST POSITION = "POSMEM_A283.1E11.3 
LAST POSITION = "POSMEM_A283.1E11.3 
LAST POSITION = "POSMEM_A283.1E11.3 
Rotator::pointTo(5.39244, 0.122218) ---> "A309.0E7.0'"
LAST POSITION = "GO_TO_A284.0_E11.3
LAST POSITION = "A_MOTOR: E0316E1190;
LAST POSITION = "B_MOTOR: E0316EE21B;
LAST POSITION = "POSMEM_A284.0E11.3 
LAST POSITION = "POSMEM_A284.0E11.3 
LAST POSITION = "POSMEM_A284.0E11.3 
Rotator::pointTo(5.4046, 0.118773) ---> "A309.7E6.8'"
LAST POSITION = "POSMEM_A284.0E11.3 
LAST POSITION = "POSMEM_A284.0E11.3 
LAST POSITION = "GO_TO_A285.0_E11.2
LAST POSITION = "A_MOTOR: E0316E11A0;
LAST POSITION = "B_MOTOR: E0316EE21B;
Rotator::pointTo(5.4166, 0.115295) ---> "A310.3E6.6'"
LAST POSITION = "POSMEM_A285.0E11.2 
LAST POSITION = "POSMEM_A285.0E11.2 
LAST POSITION = "POSMEM_A285.0E11.2 
LAST POSITION = "POSMEM_A285.0E11.2 
LAST POSITION = "GO_TO_A285.9_E11.1
Rotator::pointTo(5.42844, 0.111785) ---> "A311.0E6.4'"
LAST POSITION = "A_MOTOR: E0316E11AD;
LAST POSITION = "B_MOTOR: E0316EE21E;
LAST POSITION = "POSMEM_A285.9E11.1 
LAST POSITION = "POSMEM_A285.9E11.1 
LAST POSITION = "POSMEM_A285.9E11.1 
Rotator::pointTo(5.44012, 0.108246) ---> "A311.7E6.2'"
LAST POSITION = "POSMEM_A285.9E11.1 
LAST POSITION = "POSMEM_A285.9E11.1 
LAST POSITION = "GO_TO_A286.8_E11.0
LAST POSITION = "A_MOTOR: E0316E11BD;
LAST POSITION = "B_MOTOR: E0316EE220;
Rotator::pointTo(5.45164, 0.10468) ---> "A312.4E6.0'"
LAST POSITION = "POSMEM_A286.8E11.0 
LAST POSITION = "POSMEM_A286.8E11.0 
LAST POSITION = "POSMEM_A286.8E11.0 
LAST POSITION = "POSMEM_A286.8E11.0 
LAST POSITION = "GO_TO_A287.7_E11.0
Rotator::pointTo(5.46301, 0.101088) ---> "A313.0E5.8'"
LAST POSITION = "A_MOTOR: E0316E11CB;
LAST POSITION = "B_MOTOR: E0316EE220;
LAST POSITION = "POSMEM_A287.7E11.0 
LAST POSITION = "POSMEM_A287.7E11.0 
LAST POSITION = "POSMEM_A287.7E11.0 
Rotator::pointTo(5.47422, 0.0974729) ---> "A313.6E5.6'"
LAST POSITION = "POSMEM_A287.7E11.0 
LAST POSITION = "POSMEM_A287.7E11.0 
LAST POSITION = "GO_TO_A288.6_E10.9
LAST POSITION = "A_MOTOR: E0316E11DA;
LAST POSITION = "B_MOTOR: E0316EE220;
Rotator::pointTo(5.48528, 0.0938361) ---> "A314.3E5.4'"
LAST POSITION = "POSMEM_A288.6E10.9 
LAST POSITION = "POSMEM_A288.6E10.9 
LAST POSITION = "POSMEM_A288.6E10.9 
LAST POSITION = "POSMEM_A288.6E10.9 
LAST POSITION = "GO_TO_A289.6_E10.8
Rotator::pointTo(5.49618, 0.0901794) ---> "A314.9E5.2'"
LAST POSITION = "A_MOTOR: E0316E11EA;
LAST POSITION = "B_MOTOR: E0316EE223;
LAST POSITION = "POSMEM_A289.6E10.8 
LAST POSITION = "POSMEM_A289.6E10.8 
LAST POSITION = "POSMEM_A289.6E10.8 
Rotator::pointTo(5.50693, 0.0865046) ---> "A315.5E5.0'"
LAST POSITION = "POSMEM_A289.6E10.8 
LAST POSITION = "POSMEM_A289.6E10.8 
LAST POSITION = "GO_TO_A290.5_E10.7
LAST POSITION = "A_MOTOR: E0316E11F8;
LAST POSITION = "B_MOTOR: E0316EE223;
Rotator::pointTo(5.51753, 0.0828132) ---> "A316.1E4.7'"
LAST POSITION = "POSMEM_A290.5E10.7 
LAST POSITION = "POSMEM_A290.5E10.7 
LAST POSITION = "POSMEM_A290.5E10.7 
LAST POSITION = "POSMEM_A290.5E10.7 
LAST POSITION = "GO_TO_A291.3_E10.6
Rotator::pointTo(5.52799, 0.0791069) ---> "A316.7E4.5'"
LAST POSITION = "A_MOTOR: E0316E1205;
LAST POSITION = "B_MOTOR: E0316EE226;
LAST POSITION = "POSMEM_A291.3E10.6 
LAST POSITION = "POSMEM_A291.3E10.6 
LAST POSITION = "POSMEM_A291.3E10.6 
Rotator::pointTo(5.53829, 0.075387) ---> "A317.3E4.3'"
LAST POSITION = "POSMEM_A291.3E10.6 
LAST POSITION = "POSMEM_A291.3E10.6 
LAST POSITION = "GO_TO_A292.2_E10.4
LAST POSITION = "A_MOTOR: E0316E1213;
LAST POSITION = "B_MOTOR: E0316EE228;
Rotator::pointTo(5.54846, 0.071655) ---> "A317.9E4.1'"
LAST POSITION = "POSMEM_A292.2E10.4 
LAST POSITION = "POSMEM_A292.2E10.4 
LAST POSITION = "POSMEM_A292.2E10.4 
LAST POSITION = "POSMEM_A292.2E10.4 
LAST POSITION = "POSMEM_A292.2E10.4 
Rotator::pointTo(5.55848, 0.0679122) ---> "A318.5E3.9'"
LAST POSITION = "GO_TO_A293.1_E10.3
LAST POSITION = "A_MOTOR: E0316E1222;
LAST POSITION = "B_MOTOR: E0316EE22B;
LAST POSITION = "POSMEM_A293.1E10.3 
LAST POSITION = "POSMEM_A293.1E10.3 
Rotator::pointTo(5.56835, 0.0641599) ---> "A319.0E3.7'"
LAST POSITION = "POSMEM_A293.1E10.3 
LAST POSITION = "POSMEM_A293.1E10.3 
LAST POSITION = "POSMEM_A293.1E10.3 
LAST POSITION = "GO_TO_A294.0_E10.2
LAST POSITION = "A_MOTOR: E0316E1230;
Rotator::pointTo(5.57809, 0.0603994) ---> "A319.6E3.5'"
LAST POSITION = "B_MOTOR: E0316EE22B;
LAST POSITION = "POSMEM_A294.0E10.2 
LAST POSITION = "POSMEM_A294.0E10.2 
LAST POSITION = "POSMEM_A294.0E10.2 
LAST POSITION = "POSMEM_A294.0E10.2 
Rotator::pointTo(5.58769, 0.0566317) ---> "A320.2E3.2'"
LAST POSITION = "POSMEM_A294.0E10.2 
LAST POSITION = "GO_TO_A294.9_E10.1
LAST POSITION = "A_MOTOR: E0316E123D;
LAST POSITION = "B_MOTOR: E0316EE22E;
LAST POSITION = "POSMEM_A294.9E10.1 
Rotator::pointTo(5.59716, 0.052858) ---> "A320.7E3.0'"
LAST POSITION = "POSMEM_A294.9E10.1 
LAST POSITION = "POSMEM_A294.9E10.1 
LAST POSITION = "POSMEM_A294.9E10.1 
LAST POSITION = "POSMEM_A294.9E10.1 
LAST POSITION = "GO_TO_A295.7_E9.9
Rotator::pointTo(5.60649, 0.0490794) ---> "A321.2E2.8'"
LAST POSITION = "A_MOTOR: E0316E124B;
LAST POSITION = "B_MOTOR: E0316EE230;
LAST POSITION = "POSMEM_A295.7E9.9 
LAST POSITION = "POSMEM_A295.7E9.9 
LAST POSITION = "POSMEM_A295.7E9.9 
Rotator::pointTo(5.6157, 0.0452968) ---> "A321.8E2.6'"
LAST POSITION = "POSMEM_A295.7E9.9 
LAST POSITION = "POSMEM_A295.7E9.9 
LAST POSITION = "GO_TO_A296.6_E9.8
LAST POSITION = "A_MOTOR: E0316E125A;
LAST POSITION = "B_MOTOR: E0316EE233;
Rotator::pointTo(5.62477, 0.0415111) ---> "A322.3E2.4'"
LAST POSITION = "POSMEM_A296.6E9.8 
LAST POSITION = "POSMEM_A296.6E9.8 
LAST POSITION = "POSMEM_A296.6E9.8 
LAST POSITION = "POSMEM_A296.6E9.8 
LAST POSITION = "POSMEM_A296.6E9.8 
Rotator::pointTo(5.63371, 0.0377233) ---> "A322.8E2.2'"
LAST POSITION = "GO_TO_A297.4_E9.6
LAST POSITION = "A_MOTOR: E0316E1265;
LAST POSITION = "B_MOTOR: E0316EE236;
LAST POSITION = "POSMEM_A297.4E9.6 
LAST POSITION = "POSMEM_A297.4E9.6 
Rotator::pointTo(5.64253, 0.0339342) ---> "A323.3E1.9'"
LAST POSITION = "POSMEM_A297.4E9.6 
LAST POSITION = "POSMEM_A297.4E9.6 
LAST POSITION = "GO_TO_A298.2_E9.5
LAST POSITION = "A_MOTOR: E0316E1273;
LAST POSITION = "POSMEM?
Rotator::pointTo(5.65123, 0.0301445) ---> "A323.8E1.7'"
LAST POSITION = "B_MOTOR: E0316EE238;
LAST POSITION = "POSMEM_A298.2E9.5 
LAST POSITION = "POSMEM_A298.2E9.5 
LAST POSITION = "POSMEM_A298.2E9.5 
LAST POSITION = "POSMEM_A298.2E9.5 
Rotator::pointTo(5.6598, 0.026355) ---> "A324.3E1.5'"
LAST POSITION = "POSMEM_A298.2E9.5 
LAST POSITION = "GO_TO_A299.1_E9.3
LAST POSITION = "A_MOTOR: E0316E1282;
LAST POSITION = "B_MOTOR: E0316EE23B;
LAST POSITION = "POSMEM_A299.1E9.3 
Rotator::pointTo(5.66826, 0.0225665) ---> "A324.8E1.3'"
LAST POSITION = "POSMEM_A299.1E9.3 
LAST POSITION = "POSMEM_A299.1E9.3 
LAST POSITION = "POSMEM_A299.1E9.3 
LAST POSITION = "POSMEM_A299.1E9.3 
LAST POSITION = "GO_TO_A299.9_E9.2
Rotator::pointTo(5.67659, 0.0187795) ---> "A325.2E1.1'"
LAST POSITION = "A_MOTOR: E0316E128D;
LAST POSITION = "B_MOTOR: E0316EE23B;
LAST POSITION = "POSMEM_A299.9E9.2 
LAST POSITION = "POSMEM_A299.9E9.2 
LAST POSITION = "POSMEM_A299.9E9.2 
Rotator::pointTo(5.68482, 0.0149948) ---> "A325.7E0.9'"
LAST POSITION = "POSMEM_A299.9E9.2 
LAST POSITION = "POSMEM_A299.9E9.2 
LAST POSITION = "GO_TO_A300.7_E9.0
LAST POSITION = "A_MOTOR: E0316E129B;
LAST POSITION = "B_MOTOR: E0316EE240;
Rotator::pointTo(5.69293, 0.0112128) ---> "A326.2E0.6'"
LAST POSITION = "POSMEM_A300.7E9.0 
LAST POSITION = "POSMEM_A300.7E9.0 
LAST POSITION = "POSMEM_A300.7E9.0 
LAST POSITION = "POSMEM_A300.7E9.0 
LAST POSITION = "POSMEM_A300.7E9.0 
Rotator::pointTo(5.70092, 0.00743408) ---> "A326.6E0.4'"
LAST POSITION = "GO_TO_A301.5_E8.8
LAST POSITION = "A_MOTOR: E0316E12A8;
LAST POSITION = "B_MOTOR: E0316EE243;
LAST POSITION = "POSMEM_A301.5E8.8 
LAST POSITION = "POSMEM_A301.5E8.8 
Rotator::pointTo(5.70881, 0.00365925) ---> "A327.1E0.2'"
LAST POSITION = "POSMEM_A301.5E8.8 
LAST POSITION = "POSMEM_A301.5E8.8 
LAST POSITION = "POSMEM_A301.5E8.8 
LAST POSITION = "GO_TO_A302.3_E8.7
LAST POSITION = "A_MOTOR: E0316E12B5;
Satellite is now not visible
Next pass of NOAA 15 from Sun Jan  6 02:18:05 2013 to Sun Jan  6 02:23:30 2013
Rotator::pointTo(0.930651, 3.75615e-06) ---> "A53.3E0.0'"
LAST POSITION = "B_MOTOR: E0316EE243;
LAST POSITION = "POSMEM_A302.3E8.7 
LAST POSITION = "POSMEM_A302.3E8.7 
LAST POSITION = "POSMEM_A302.3E8.7 
LAST POSITION = "POSMEM_A302.3E8.7 
LAST POSITION = "POSMEM_A302.3E8.7 
LAST POSITION = "GO_TO_A303.1_E8.5
LAST POSITION = "A_MOTOR: E0316E12C2;
LAST POSITION = "B_MOTOR: E0316EE248;
LAST POSITION = "POSMEM_A303.1E8.5 
LAST POSITION = "POSMEM_A303.1E8.5 
LAST POSITION = "POSMEM_A303.1E8.5 
LAST POSITION = "POSMEM_A303.1E8.5 
LAST POSITION = "POSMEM_A303.1E8.5 
LAST POSITION = "GO_TO_A303.8_E8.3
LAST POSITION = "A_MOTOR: E0316E12CD;
LAST POSITION = "B_MOTOR: E0316EE24B;
LAST POSITION = "POSMEM_A303.8E8.3 
LAST POSITION = "POSMEM_A303.8E8.3 
LAST POSITION = "POSMEM_A303.8E8.3 
LAST POSITION = "POSMEM_A303.8E8.3 
LAST POSITION = "POSMEM_A303.8E8.3 
LAST POSITION = "GO_TO_A304.6_E8.1
LAST POSITION = "A_MOTOR: E0316E12DA;
LAST POSITION = "B_MOTOR: E0316EE24E;
LAST POSITION = "POSMEM_A304.6E8.1 
LAST POSITION = "POSMEM_A304.6E8.1 
LAST POSITION = "POSMEM_A304.6E8.1 
LAST POSITION = "POSMEM_A304.6E8.1 
LAST POSITION = "POSMEM_A304.6E8.1 
LAST POSITION = "GO_TO_A305.3_E8.0
LAST POSITION = "A_MOTOR: E0316E12E5;
LAST POSITION = "B_MOTOR: E0316EE250;
LAST POSITION = "POSMEM_A305.3E8.0 
LAST POSITION = "POSMEM_A305.3E8.0 
LAST POSITION = "POSMEM_A305.3E8.0 
LAST POSITION = "POSMEM_A305.3E8.0 
LAST POSITION = "POSMEM_A305.3E8.0 
LAST POSITION = "GO_TO_A306.1_E7.8
LAST POSITION = "A_MOTOR: E0316E12F2;
LAST POSITION = "B_MOTOR: E0316EE253;
LAST POSITION = "POSMEM_A306.1E7.8 
LAST POSITION = "POSMEM_A306.1E7.8 
LAST POSITION = "POSMEM_A306.1E7.8 
LAST POSITION = "POSMEM_A306.1E7.8 
Tracker done
rotator disconnected

RUN SUCCESSFUL (total time: 10m 45s)


